{
  "Emily": [
    "You can fling a ball of green genetic flame at a target, causing its DNA to implode.",
    "You can generate moving likenesses of creatures to confuse and protect yourself."
  ],
  "Joe": [
    "Double food consumption.",
    "You can de-escalate fights by imploring a target to consider if its argument is valid, and if its assumptions are founded.",
    "You can fire contrived geometric problems at a target to enrage it."
  ],
  "1": "You can find a topic of conversation with any other parent.",
  "2": "You can function on less than 30% of the sleep you thought you needed.",
  "3": "You can perform many household tasks with a baby in one arm.",
  "4": "You can spot how other parents are doing it wrong.",
  "5": "You no longer have any fear of wee, sick OR poo."
}
